<?xml version="1.0" encoding="UTF-8"?>
<!DOCTYPE svg PUBLIC '-//W3C//DTD SVG 1.0//EN'
          'http://www.w3.org/TR/2001/REC-SVG-20010904/DTD/svg10.dtd'>
<svg fill-opacity="0" xmlns:xlink="http://www.w3.org/1999/xlink" color-rendering="auto" color-interpolation="auto" text-rendering="auto" stroke="rgb(0,0,0)" stroke-linecap="square" width="613" stroke-miterlimit="10" shape-rendering="auto" stroke-opacity="0" fill="rgb(0,0,0)" stroke-dasharray="none" font-weight="normal" stroke-width="1" height="450" xmlns="http://www.w3.org/2000/svg" font-family="'Dialog'" font-style="normal" stroke-linejoin="miter" font-size="12px" stroke-dashoffset="0" image-rendering="auto"
><!--Generated by the Batik Graphics2D SVG Generator--><defs id="genericDefs"
  /><g
  ><defs id="defs1"
    ><clipPath clipPathUnits="userSpaceOnUse" id="clipPath1"
      ><path d="M-7 -7 L82 -7 L82 403 L-7 403 L-7 -7 Z"
      /></clipPath
      ><clipPath clipPathUnits="userSpaceOnUse" id="clipPath2"
      ><path d="M-7 -7 L150 -7 L150 403 L-7 403 L-7 -7 Z"
      /></clipPath
      ><clipPath clipPathUnits="userSpaceOnUse" id="clipPath3"
      ><path d="M-7 -7 L19 -7 L19 284 L-7 284 L-7 -7 Z"
      /></clipPath
      ><clipPath clipPathUnits="userSpaceOnUse" id="clipPath4"
      ><path d="M-7 -7 L288 -7 L288 71 L-7 71 L-7 -7 Z"
      /></clipPath
      ><clipPath clipPathUnits="userSpaceOnUse" id="clipPath5"
      ><path d="M0 0 L0 60 L262 60 L262 0 Z"
      /></clipPath
      ><clipPath clipPathUnits="userSpaceOnUse" id="clipPath6"
      ><path d="M-139 -30 L278 -30 L278 60 L-139 60 L-139 -30 Z"
      /></clipPath
      ><clipPath clipPathUnits="userSpaceOnUse" id="clipPath7"
      ><path d="M-71 -30 L142 -30 L142 60 L-71 60 L-71 -30 Z"
      /></clipPath
      ><clipPath clipPathUnits="userSpaceOnUse" id="clipPath8"
      ><path d="M0 0 L598 0 L598 104 L0 104 L0 0 Z"
      /></clipPath
      ><clipPath clipPathUnits="userSpaceOnUse" id="clipPath9"
      ><path d="M427 2 L427 42 L157 42 L157 2 ZM329 54 L329 69 L264 69 L264 54 ZM0 0 L0 104 L130 104 L130 94 L443 94 L443 104 L598 104 L598 0 Z"
      /></clipPath
      ><clipPath clipPathUnits="userSpaceOnUse" id="clipPath10"
      ><path d="M391 65 L391 80 L202 80 L202 65 ZM0 0 L0 104 L598 104 L598 0 L443 0 L443 45 L130 45 L130 0 Z"
      /></clipPath
      ><clipPath clipPathUnits="userSpaceOnUse" id="clipPath11"
      ><path d="M491 30 L491 45 L97 45 L97 30 ZM450 75 L450 90 L144 90 L144 75 ZM0 0 L0 104 L598 104 L598 0 Z"
      /></clipPath
      ><clipPath clipPathUnits="userSpaceOnUse" id="clipPath12"
      ><path d="M329 30 L329 45 L264 45 L264 30 ZM0 0 L0 104 L130 104 L130 70 L443 70 L443 104 L598 104 L598 0 L427 0 L427 18 L157 18 L157 0 Z"
      /></clipPath
      ><clipPath clipPathUnits="userSpaceOnUse" id="clipPath13"
      ><path d="M334 29 L334 44 L260 44 L260 29 ZM491 74 L491 89 L97 89 L97 74 ZM0 0 L0 104 L598 104 L598 0 L391 0 L391 3 L202 3 L202 0 Z"
      /></clipPath
      ><clipPath clipPathUnits="userSpaceOnUse" id="clipPath14"
      ><path d="M391 30 L391 45 L202 45 L202 30 ZM334 71 L334 86 L260 86 L260 71 ZM0 0 L0 104 L598 104 L598 0 L443 0 L443 10 L130 10 L130 0 Z"
      /></clipPath
      ><clipPath clipPathUnits="userSpaceOnUse" id="clipPath15"
      ><path d="M450 30 L450 45 L144 45 L144 30 ZM0 0 L0 104 L598 104 L598 0 Z"
      /></clipPath
      ><clipPath clipPathUnits="userSpaceOnUse" id="clipPath16"
      ><path d="M-306 -15 L612 -15 L612 30 L-306 30 L-306 -15 Z"
      /></clipPath
      ><clipPath clipPathUnits="userSpaceOnUse" id="clipPath17"
      ><path d="M-189 -15 L378 -15 L378 30 L-189 30 L-189 -15 Z"
      /></clipPath
      ><clipPath clipPathUnits="userSpaceOnUse" id="clipPath18"
      ><path d="M-74 -15 L148 -15 L148 30 L-74 30 L-74 -15 Z"
      /></clipPath
      ><clipPath clipPathUnits="userSpaceOnUse" id="clipPath19"
      ><path d="M-65 -15 L130 -15 L130 30 L-65 30 L-65 -15 Z"
      /></clipPath
      ><clipPath clipPathUnits="userSpaceOnUse" id="clipPath20"
      ><path d="M-394 -15 L788 -15 L788 30 L-394 30 L-394 -15 Z"
      /></clipPath
      ><clipPath clipPathUnits="userSpaceOnUse" id="clipPath21"
      ><path d="M-313 -46 L626 -46 L626 92 L-313 92 L-313 -46 Z"
      /></clipPath
      ><clipPath clipPathUnits="userSpaceOnUse" id="clipPath22"
      ><path d="M-270 -40 L540 -40 L540 80 L-270 80 L-270 -40 Z"
      /></clipPath
    ></defs
    ><g fill="white" text-rendering="geometricPrecision" fill-opacity="1" stroke-opacity="1" stroke="white"
    ><rect x="0" width="613" height="450" y="0" stroke="none"
    /></g
    ><g font-size="11px" transform="translate(2,2)" fill-opacity="1" fill="white" text-rendering="geometricPrecision" image-rendering="optimizeQuality" font-family="sans-serif" stroke="white" stroke-opacity="1"
    ><rect x="0" width="70" height="35" y="0" clip-path="url(#clipPath1)" stroke="none"
    /></g
    ><g stroke-linecap="butt" font-size="11px" transform="translate(2,2)" fill-opacity="1" fill="black" text-rendering="geometricPrecision" image-rendering="optimizeQuality" font-family="sans-serif" stroke-linejoin="round" stroke="black" stroke-opacity="1" stroke-miterlimit="0"
    ><rect fill="none" x="0" width="70" height="35" y="0" clip-path="url(#clipPath1)"
      /><line clip-path="url(#clipPath1)" fill="none" x1="35" x2="35" y1="35" y2="392" stroke-linejoin="bevel" stroke-dasharray="8,3"
    /></g
    ><g font-size="11px" transform="translate(470,2)" fill-opacity="1" fill="white" text-rendering="geometricPrecision" image-rendering="optimizeQuality" font-family="sans-serif" stroke="white" stroke-opacity="1"
    ><rect x="0" width="138" height="35" y="0" clip-path="url(#clipPath2)" stroke="none"
    /></g
    ><g stroke-linecap="butt" font-size="11px" transform="translate(470,2)" fill-opacity="1" fill="black" text-rendering="geometricPrecision" image-rendering="optimizeQuality" font-family="sans-serif" stroke-linejoin="round" stroke="black" stroke-opacity="1" stroke-miterlimit="0"
    ><rect fill="none" x="0" width="138" height="35" y="0" clip-path="url(#clipPath2)"
      /><line clip-path="url(#clipPath2)" fill="none" x1="69" x2="69" y1="35" y2="392" stroke-linejoin="bevel" stroke-dasharray="8,3"
    /></g
    ><g font-size="11px" transform="translate(33,101)" fill-opacity="1" fill="white" text-rendering="geometricPrecision" image-rendering="optimizeQuality" font-family="sans-serif" stroke="white" stroke-opacity="1"
    ><rect x="0" width="8" height="273" y="0" clip-path="url(#clipPath3)" stroke="none"
    /></g
    ><g stroke-linecap="butt" font-size="11px" transform="translate(33,101)" fill-opacity="1" fill="black" text-rendering="geometricPrecision" image-rendering="optimizeQuality" font-family="sans-serif" stroke-linejoin="round" stroke="black" stroke-opacity="1" stroke-miterlimit="0"
    ><rect fill="none" x="0" width="8" height="273" y="0" clip-path="url(#clipPath3)"
    /></g
    ><g font-size="11px" transform="translate(535,101)" fill-opacity="1" fill="white" text-rendering="geometricPrecision" image-rendering="optimizeQuality" font-family="sans-serif" stroke="white" stroke-opacity="1"
    ><rect x="0" width="8" height="273" y="0" clip-path="url(#clipPath3)" stroke="none"
    /></g
    ><g stroke-linecap="butt" font-size="11px" transform="translate(535,101)" fill-opacity="1" fill="black" text-rendering="geometricPrecision" image-rendering="optimizeQuality" font-family="sans-serif" stroke-linejoin="round" stroke="black" stroke-opacity="1" stroke-miterlimit="0"
    ><rect fill="none" x="0" width="8" height="273" y="0" clip-path="url(#clipPath3)"
    /></g
    ><g transform="translate(151,386)" fill-opacity="1" fill="white" text-rendering="geometricPrecision" image-rendering="optimizeQuality" font-family="sans-serif" stroke="white" stroke-opacity="1"
    ><polygon points=" 0 0 261 0 276 15 261 15 261 0 276 15 276 59 0 59" stroke="none" clip-path="url(#clipPath4)"
    /></g
    ><g stroke-linecap="butt" transform="translate(151,386)" fill-opacity="1" fill="black" text-rendering="geometricPrecision" image-rendering="optimizeQuality" font-family="sans-serif" stroke-linejoin="round" stroke="black" stroke-opacity="1" stroke-miterlimit="0"
    ><polygon fill="none" points=" 0 0 261 0 276 15 261 15 261 0 276 15 276 59 0 59" clip-path="url(#clipPath4)"
    /></g
    ><g font-size="10px" transform="translate(151,386)" fill-opacity="1" fill="black" text-rendering="geometricPrecision" image-rendering="optimizeQuality" font-family="'Tahoma'" stroke="black" stroke-opacity="1"
    ><path d="M8.05 13.457 L9.1375 13.582 Q8.8875 14.5445 8.1875 15.0695 Q7.4875 15.5945 6.4 15.5945 Q5.0375 15.5945 4.2375 14.757 Q3.4375 13.9195 3.4375 12.3945 Q3.4375 10.832 4.25 9.9695 Q5.0625 9.0945 6.35 9.0945 Q7.6 9.0945 8.3875 9.9445 Q9.175 10.7945 9.175 12.332 Q9.175 12.432 9.175 12.6195 L4.525 12.6195 Q4.5875 13.6445 5.1 14.1945 Q5.625 14.732 6.4125 14.732 Q6.9875 14.732 7.4 14.432 Q7.8125 14.1195 8.05 13.457 ZM4.5875 11.7445 L8.0625 11.7445 Q7.9875 10.957 7.6625 10.5695 Q7.1625 9.957 6.3625 9.957 Q5.625 9.957 5.125 10.4445 Q4.6375 10.932 4.5875 11.7445 ZM9.4875 15.457 L11.7625 12.2195 L9.6625 9.232 L10.975 9.232 L11.9375 10.6945 Q12.2 11.107 12.3625 11.3945 Q12.625 11.007 12.8375 10.707 L13.8875 9.232 L15.15 9.232 L13 12.1695 L15.3125 15.457 L14.0125 15.457 L12.7375 13.5195 L12.4 13.007 L10.7625 15.457 L9.4875 15.457 ZM20.65 13.182 L21.6875 13.307 Q21.525 14.382 20.8125 14.9945 Q20.1125 15.5945 19.1 15.5945 Q17.825 15.5945 17.05 14.7695 Q16.275 13.932 16.275 12.3695 Q16.275 11.357 16.6 10.607 Q16.9375 9.8445 17.6125 9.4695 Q18.3 9.0945 19.1 9.0945 Q20.1125 9.0945 20.7625 9.607 Q21.4125 10.1195 21.5875 11.057 L20.5625 11.2195 Q20.4125 10.5945 20.0375 10.282 Q19.675 9.957 19.15 9.957 Q18.35 9.957 17.85 10.532 Q17.35 11.107 17.35 12.3445 Q17.35 13.5945 17.825 14.1695 Q18.3125 14.732 19.0875 14.732 Q19.7125 14.732 20.125 14.357 Q20.5375 13.9695 20.65 13.182 ZM22.9875 15.457 L22.9875 6.8695 L24.05 6.8695 L24.05 9.9445 Q24.7875 9.0945 25.9125 9.0945 Q26.6 9.0945 27.1125 9.3695 Q27.625 9.6445 27.8375 10.1195 Q28.0625 10.5945 28.0625 11.5195 L28.0625 15.457 L27 15.457 L27 11.5195 Q27 10.7195 26.6625 10.3695 Q26.325 10.007 25.6875 10.007 Q25.225 10.007 24.8125 10.2445 Q24.4 10.482 24.225 10.907 Q24.05 11.3195 24.05 12.057 L24.05 15.457 L22.9875 15.457 ZM33.45 14.6945 Q32.8625 15.182 32.325 15.3945 Q31.7875 15.5945 31.1625 15.5945 Q30.1375 15.5945 29.5875 15.0945 Q29.0375 14.5945 29.0375 13.8195 Q29.0375 13.357 29.2375 12.982 Q29.45 12.607 29.7875 12.382 Q30.125 12.1445 30.55 12.032 Q30.85 11.9445 31.4875 11.8695 Q32.7625 11.7195 33.3625 11.507 Q33.375 11.2945 33.375 11.232 Q33.375 10.582 33.075 10.3195 Q32.6625 9.9695 31.875 9.9695 Q31.125 9.9695 30.7625 10.232 Q30.4125 10.482 30.25 11.1445 L29.2125 11.007 Q29.35 10.3445 29.675 9.9445 Q30 9.532 30.6125 9.3195 Q31.225 9.0945 32.025 9.0945 Q32.825 9.0945 33.3125 9.282 Q33.8125 9.4695 34.05 9.757 Q34.2875 10.032 34.375 10.4695 Q34.425 10.7445 34.425 11.4445 L34.425 12.8445 Q34.425 14.3195 34.4875 14.707 Q34.5625 15.0945 34.7625 15.457 L33.6625 15.457 Q33.5 15.132 33.45 14.6945 ZM33.3625 12.332 Q32.7875 12.5695 31.6375 12.732 Q30.9875 12.832 30.7125 12.9445 Q30.45 13.057 30.3 13.282 Q30.1625 13.507 30.1625 13.782 Q30.1625 14.207 30.475 14.4945 Q30.8 14.7695 31.4125 14.7695 Q32.025 14.7695 32.5 14.507 Q32.975 14.232 33.2 13.7695 Q33.3625 13.4195 33.3625 12.7195 L33.3625 12.332 ZM35.7875 15.457 L35.7875 9.232 L36.7375 9.232 L36.7375 10.1195 Q37.425 9.0945 38.725 9.0945 Q39.2875 9.0945 39.75 9.2945 Q40.225 9.4945 40.4625 9.832 Q40.7 10.157 40.7875 10.607 Q40.85 10.8945 40.85 11.632 L40.85 15.457 L39.7875 15.457 L39.7875 11.6695 Q39.7875 11.032 39.6625 10.7195 Q39.55 10.3945 39.2375 10.207 Q38.925 10.007 38.5 10.007 Q37.825 10.007 37.3375 10.432 Q36.85 10.857 36.85 12.057 L36.85 15.457 L35.7875 15.457 ZM42 15.9695 L43.025 16.1195 Q43.0875 16.5945 43.375 16.8195 Q43.775 17.107 44.45 17.107 Q45.1875 17.107 45.5875 16.807 Q45.9875 16.5195 46.125 15.9945 Q46.2 15.6695 46.2 14.6445 Q45.5125 15.457 44.475 15.457 Q43.1875 15.457 42.4875 14.532 Q41.7875 13.607 41.7875 12.307 Q41.7875 11.4195 42.1125 10.6695 Q42.4375 9.9195 43.0375 9.507 Q43.65 9.0945 44.4875 9.0945 Q45.5875 9.0945 46.3 9.982 L46.3 9.232 L47.275 9.232 L47.275 14.607 Q47.275 16.0695 46.975 16.6695 Q46.675 17.282 46.0375 17.632 Q45.4 17.982 44.4625 17.982 Q43.35 17.982 42.6625 17.482 Q41.975 16.982 42 15.9695 ZM42.875 12.232 Q42.875 13.457 43.35 14.0195 Q43.8375 14.582 44.575 14.582 Q45.3 14.582 45.7875 14.032 Q46.2875 13.4695 46.2875 12.2695 Q46.2875 11.132 45.775 10.557 Q45.275 9.9695 44.5625 9.9695 Q43.85 9.9695 43.3625 10.5445 Q42.875 11.107 42.875 12.232 ZM52.85 13.457 L53.9375 13.582 Q53.6875 14.5445 52.9875 15.0695 Q52.2875 15.5945 51.2 15.5945 Q49.8375 15.5945 49.0375 14.757 Q48.2375 13.9195 48.2375 12.3945 Q48.2375 10.832 49.05 9.9695 Q49.8625 9.0945 51.15 9.0945 Q52.4 9.0945 53.1875 9.9445 Q53.975 10.7945 53.975 12.332 Q53.975 12.432 53.975 12.6195 L49.325 12.6195 Q49.3875 13.6445 49.9 14.1945 Q50.425 14.732 51.2125 14.732 Q51.7875 14.732 52.2 14.432 Q52.6125 14.1195 52.85 13.457 ZM49.3875 11.7445 L52.8625 11.7445 Q52.7875 10.957 52.4625 10.5695 Q51.9625 9.957 51.1625 9.957 Q50.425 9.957 49.925 10.4445 Q49.4375 10.932 49.3875 11.7445 ZM58.1874 15.457 L58.1874 9.232 L59.1374 9.232 L59.1374 10.107 Q59.4249 9.6445 59.9124 9.3695 Q60.3999 9.0945 61.0249 9.0945 Q61.7124 9.0945 62.1499 9.382 Q62.5999 9.6695 62.7749 10.182 Q63.5124 9.0945 64.7 9.0945 Q65.6249 9.0945 66.1249 9.607 Q66.6249 10.1195 66.6249 11.182 L66.6249 15.457 L65.575 15.457 L65.575 11.532 Q65.575 10.907 65.4749 10.632 Q65.3749 10.3445 65.0999 10.182 Q64.825 10.007 64.4624 10.007 Q63.8124 10.007 63.3749 10.4445 Q62.9374 10.882 62.9374 11.8445 L62.9374 15.457 L61.8874 15.457 L61.8874 11.4195 Q61.8874 10.707 61.6249 10.357 Q61.3749 10.007 60.7874 10.007 Q60.3374 10.007 59.9624 10.2445 Q59.5874 10.482 59.4124 10.932 Q59.2499 11.382 59.2499 12.232 L59.2499 15.457 L58.1874 15.457 ZM72.8499 13.457 L73.9374 13.582 Q73.6874 14.5445 72.9874 15.0695 Q72.2874 15.5945 71.1999 15.5945 Q69.8374 15.5945 69.0374 14.757 Q68.2374 13.9195 68.2374 12.3945 Q68.2374 10.832 69.0499 9.9695 Q69.8624 9.0945 71.1499 9.0945 Q72.3999 9.0945 73.1874 9.9445 Q73.9749 10.7945 73.9749 12.332 Q73.9749 12.432 73.9749 12.6195 L69.3249 12.6195 Q69.3874 13.6445 69.8999 14.1945 Q70.4249 14.732 71.2124 14.732 Q71.7874 14.732 72.1999 14.432 Q72.6124 14.1195 72.8499 13.457 ZM69.3874 11.7445 L72.8624 11.7445 Q72.7874 10.957 72.4624 10.5695 Q71.9624 9.957 71.1624 9.957 Q70.4249 9.957 69.9249 10.4445 Q69.4374 10.932 69.3874 11.7445 ZM74.5749 13.5945 L75.6124 13.432 Q75.6999 14.057 76.0999 14.3945 Q76.4999 14.732 77.2249 14.732 Q77.9499 14.732 78.2999 14.4445 Q78.6499 14.1445 78.6499 13.7445 Q78.6499 13.382 78.3374 13.182 Q78.1249 13.032 77.2624 12.8195 Q76.0999 12.532 75.6499 12.3195 Q75.2124 12.0945 74.9749 11.7195 Q74.7499 11.3445 74.7499 10.882 Q74.7499 10.4695 74.9374 10.1195 Q75.1249 9.757 75.4499 9.532 Q75.6999 9.3445 76.1249 9.2195 Q76.5499 9.0945 77.0374 9.0945 Q77.7624 9.0945 78.3124 9.307 Q78.8749 9.5195 79.1374 9.882 Q79.3999 10.232 79.4999 10.8445 L78.4749 10.982 Q78.3999 10.4945 78.0624 10.232 Q77.7249 9.957 77.1124 9.957 Q76.3874 9.957 76.0749 10.207 Q75.7624 10.4445 75.7624 10.7695 Q75.7624 10.9695 75.8874 11.132 Q76.0249 11.307 76.2999 11.4195 Q76.4499 11.4695 77.2249 11.682 Q78.3499 11.982 78.7874 12.1695 Q79.2374 12.357 79.4874 12.732 Q79.7374 13.0945 79.7374 13.632 Q79.7374 14.157 79.4249 14.6195 Q79.1249 15.082 78.5374 15.3445 Q77.9624 15.5945 77.2249 15.5945 Q76.0124 15.5945 75.3749 15.0945 Q74.7499 14.5945 74.5749 13.5945 ZM80.9749 13.5945 L82.0124 13.432 Q82.0999 14.057 82.4999 14.3945 Q82.8999 14.732 83.6249 14.732 Q84.3499 14.732 84.6999 14.4445 Q85.0499 14.1445 85.0499 13.7445 Q85.0499 13.382 84.7374 13.182 Q84.5249 13.032 83.6624 12.8195 Q82.4999 12.532 82.0499 12.3195 Q81.6124 12.0945 81.3749 11.7195 Q81.1499 11.3445 81.1499 10.882 Q81.1499 10.4695 81.3374 10.1195 Q81.5249 9.757 81.8499 9.532 Q82.0999 9.3445 82.5249 9.2195 Q82.9499 9.0945 83.4374 9.0945 Q84.1624 9.0945 84.7124 9.307 Q85.2749 9.5195 85.5374 9.882 Q85.7999 10.232 85.8999 10.8445 L84.8749 10.982 Q84.7999 10.4945 84.4624 10.232 Q84.1249 9.957 83.5124 9.957 Q82.7874 9.957 82.4749 10.207 Q82.1624 10.4445 82.1624 10.7695 Q82.1624 10.9695 82.2874 11.132 Q82.4249 11.307 82.6999 11.4195 Q82.8499 11.4695 83.6249 11.682 Q84.7499 11.982 85.1874 12.1695 Q85.6374 12.357 85.8874 12.732 Q86.1374 13.0945 86.1374 13.632 Q86.1374 14.157 85.8249 14.6195 Q85.5249 15.082 84.9374 15.3445 Q84.3624 15.5945 83.6249 15.5945 Q82.4124 15.5945 81.7749 15.0945 Q81.1499 14.5945 80.9749 13.5945 ZM91.8499 14.6945 Q91.2624 15.182 90.7249 15.3945 Q90.1874 15.5945 89.5624 15.5945 Q88.5374 15.5945 87.9874 15.0945 Q87.4374 14.5945 87.4374 13.8195 Q87.4374 13.357 87.6374 12.982 Q87.8499 12.607 88.1874 12.382 Q88.5249 12.1445 88.9499 12.032 Q89.2499 11.9445 89.8874 11.8695 Q91.1624 11.7195 91.7624 11.507 Q91.7749 11.2945 91.7749 11.232 Q91.7749 10.582 91.4749 10.3195 Q91.0624 9.9695 90.2749 9.9695 Q89.5249 9.9695 89.1624 10.232 Q88.8124 10.482 88.6499 11.1445 L87.6124 11.007 Q87.7499 10.3445 88.0749 9.9445 Q88.3999 9.532 89.0124 9.3195 Q89.6249 9.0945 90.4249 9.0945 Q91.2249 9.0945 91.7124 9.282 Q92.2124 9.4695 92.4499 9.757 Q92.6874 10.032 92.7749 10.4695 Q92.8249 10.7445 92.8249 11.4445 L92.8249 12.8445 Q92.8249 14.3195 92.8874 14.707 Q92.9624 15.0945 93.1624 15.457 L92.0624 15.457 Q91.8999 15.132 91.8499 14.6945 ZM91.7624 12.332 Q91.1874 12.5695 90.0374 12.732 Q89.3874 12.832 89.1124 12.9445 Q88.8499 13.057 88.6999 13.282 Q88.5624 13.507 88.5624 13.782 Q88.5624 14.207 88.8749 14.4945 Q89.1999 14.7695 89.8124 14.7695 Q90.4249 14.7695 90.8999 14.507 Q91.3749 14.232 91.5999 13.7695 Q91.7624 13.4195 91.7624 12.7195 L91.7624 12.332 ZM93.9999 15.9695 L95.0249 16.1195 Q95.0874 16.5945 95.3749 16.8195 Q95.7749 17.107 96.4499 17.107 Q97.1874 17.107 97.5874 16.807 Q97.9874 16.5195 98.1249 15.9945 Q98.1999 15.6695 98.1999 14.6445 Q97.5124 15.457 96.4749 15.457 Q95.1874 15.457 94.4874 14.532 Q93.7874 13.607 93.7874 12.307 Q93.7874 11.4195 94.1124 10.6695 Q94.4374 9.9195 95.0374 9.507 Q95.6499 9.0945 96.4874 9.0945 Q97.5874 9.0945 98.2999 9.982 L98.2999 9.232 L99.2749 9.232 L99.2749 14.607 Q99.2749 16.0695 98.9749 16.6695 Q98.6749 17.282 98.0374 17.632 Q97.3999 17.982 96.4624 17.982 Q95.3499 17.982 94.6624 17.482 Q93.9749 16.982 93.9999 15.9695 ZM94.8749 12.232 Q94.8749 13.457 95.3499 14.0195 Q95.8374 14.582 96.5749 14.582 Q97.2999 14.582 97.7874 14.032 Q98.2874 13.4695 98.2874 12.2695 Q98.2874 11.132 97.7749 10.557 Q97.2749 9.9695 96.5624 9.9695 Q95.8499 9.9695 95.3624 10.5445 Q94.8749 11.107 94.8749 12.232 ZM104.8499 13.457 L105.9374 13.582 Q105.6874 14.5445 104.9874 15.0695 Q104.2874 15.5945 103.1999 15.5945 Q101.8374 15.5945 101.0374 14.757 Q100.2374 13.9195 100.2374 12.3945 Q100.2374 10.832 101.0499 9.9695 Q101.8624 9.0945 103.1499 9.0945 Q104.3999 9.0945 105.1874 9.9445 Q105.9749 10.7945 105.9749 12.332 Q105.9749 12.432 105.9749 12.6195 L101.3249 12.6195 Q101.3874 13.6445 101.8999 14.1945 Q102.4249 14.732 103.2124 14.732 Q103.7874 14.732 104.1999 14.432 Q104.6124 14.1195 104.8499 13.457 ZM101.3874 11.7445 L104.8624 11.7445 Q104.7874 10.957 104.4624 10.5695 Q103.9624 9.957 103.1624 9.957 Q102.4249 9.957 101.9249 10.4445 Q101.4374 10.932 101.3874 11.7445 ZM106.5749 13.5945 L107.6124 13.432 Q107.6999 14.057 108.0999 14.3945 Q108.4999 14.732 109.2249 14.732 Q109.9499 14.732 110.2999 14.4445 Q110.6499 14.1445 110.6499 13.7445 Q110.6499 13.382 110.3374 13.182 Q110.1249 13.032 109.2624 12.8195 Q108.0999 12.532 107.6499 12.3195 Q107.2124 12.0945 106.9749 11.7195 Q106.7499 11.3445 106.7499 10.882 Q106.7499 10.4695 106.9374 10.1195 Q107.1249 9.757 107.4499 9.532 Q107.6999 9.3445 108.1249 9.2195 Q108.5499 9.0945 109.0374 9.0945 Q109.7624 9.0945 110.3124 9.307 Q110.8749 9.5195 111.1374 9.882 Q111.3999 10.232 111.4999 10.8445 L110.4749 10.982 Q110.3999 10.4945 110.0624 10.232 Q109.7249 9.957 109.1124 9.957 Q108.3874 9.957 108.0749 10.207 Q107.7624 10.4445 107.7624 10.7695 Q107.7624 10.9695 107.8874 11.132 Q108.0249 11.307 108.2999 11.4195 Q108.4499 11.4695 109.2249 11.682 Q110.3499 11.982 110.7874 12.1695 Q111.2374 12.357 111.4874 12.732 Q111.7374 13.0945 111.7374 13.632 Q111.7374 14.157 111.4249 14.6195 Q111.1249 15.082 110.5374 15.3445 Q109.9624 15.5945 109.2249 15.5945 Q108.0124 15.5945 107.3749 15.0945 Q106.7499 14.5945 106.5749 13.5945 ZM118.6124 17.982 Q117.7374 16.882 117.1249 15.407 Q116.5249 13.932 116.5249 12.3445 Q116.5249 10.957 116.9749 9.6695 Q117.4999 8.1945 118.6124 6.7195 L119.3624 6.7195 Q118.6499 7.9445 118.4249 8.457 Q118.0624 9.2695 117.8624 10.1445 Q117.6124 11.2445 117.6124 12.357 Q117.6124 15.1695 119.3624 17.982 L118.6124 17.982 ZM126.3624 6.8695 L127.4999 6.8695 L127.4999 11.832 Q127.4999 13.1195 127.1999 13.882 Q126.9124 14.6445 126.1499 15.132 Q125.3874 15.607 124.1374 15.607 Q122.9374 15.607 122.1624 15.1945 Q121.3999 14.7695 121.0624 13.982 Q120.7374 13.1945 120.7374 11.832 L120.7374 6.8695 L121.8749 6.8695 L121.8749 11.8195 Q121.8749 12.9445 122.0874 13.482 Q122.2999 14.007 122.7999 14.2945 Q123.3124 14.582 124.0374 14.582 Q125.2999 14.582 125.8249 14.0195 Q126.3624 13.4445 126.3624 11.8195 L126.3624 6.8695 ZM129.1374 12.6945 L130.2124 12.607 Q130.2874 13.2445 130.5624 13.657 Q130.8499 14.0695 131.4249 14.332 Q132.0124 14.582 132.7499 14.582 Q133.3999 14.582 133.8999 14.3945 Q134.3999 14.1945 134.6374 13.857 Q134.8874 13.5195 134.8874 13.1195 Q134.8874 12.7195 134.6499 12.4195 Q134.4124 12.1195 133.8749 11.907 Q133.5249 11.782 132.3374 11.4945 Q131.1624 11.207 130.6874 10.957 Q130.0749 10.632 129.7624 10.157 Q129.4624 9.682 129.4624 9.082 Q129.4624 8.432 129.8249 7.8695 Q130.1999 7.307 130.9124 7.0195 Q131.6249 6.7195 132.4874 6.7195 Q133.4499 6.7195 134.1749 7.032 Q134.8999 7.332 135.2874 7.932 Q135.6874 8.532 135.7249 9.282 L134.6249 9.3695 Q134.5374 8.557 134.0249 8.1445 Q133.5249 7.7195 132.5374 7.7195 Q131.5124 7.7195 131.0374 8.107 Q130.5624 8.482 130.5624 9.007 Q130.5624 9.4695 130.8999 9.7695 Q131.2249 10.0695 132.6124 10.382 Q133.9999 10.6945 134.5124 10.932 Q135.2624 11.282 135.6124 11.8195 Q135.9749 12.3445 135.9749 13.032 Q135.9749 13.7195 135.5749 14.332 Q135.1874 14.932 134.4499 15.2695 Q133.7249 15.607 132.7999 15.607 Q131.6374 15.607 130.8499 15.2695 Q130.0624 14.9195 129.6124 14.2445 Q129.1624 13.557 129.1374 12.6945 ZM144.2749 15.457 L143.2124 15.457 L143.2124 8.732 Q142.8374 9.0945 142.2124 9.4695 Q141.5999 9.832 141.1124 10.007 L141.1124 8.982 Q141.9874 8.5695 142.6499 7.982 Q143.3124 7.3945 143.5874 6.832 L144.2749 6.832 L144.2749 15.457 ZM146.6999 11.2195 Q146.6999 9.6945 147.0124 8.7695 Q147.3249 7.8445 147.9374 7.3445 Q148.5624 6.832 149.4999 6.832 Q150.1874 6.832 150.7124 7.1195 Q151.2374 7.3945 151.5749 7.9195 Q151.9124 8.432 152.0999 9.1945 Q152.2999 9.9445 152.2999 11.2195 Q152.2999 12.732 151.9874 13.6695 Q151.6749 14.5945 151.0499 15.107 Q150.4374 15.607 149.4999 15.607 Q148.2624 15.607 147.5499 14.707 Q146.6999 13.6445 146.6999 11.2195 ZM147.7874 11.2195 Q147.7874 13.332 148.2749 14.032 Q148.7749 14.732 149.4999 14.732 Q150.2249 14.732 150.7124 14.032 Q151.2124 13.332 151.2124 11.2195 Q151.2124 9.0945 150.7124 8.407 Q150.2249 7.707 149.4874 7.707 Q148.7624 7.707 148.3249 8.3195 Q147.7874 9.107 147.7874 11.2195 ZM157.0749 15.457 L156.0124 15.457 L156.0124 8.732 Q155.6374 9.0945 155.0124 9.4695 Q154.3999 9.832 153.9124 10.007 L153.9124 8.982 Q154.7874 8.5695 155.4499 7.982 Q156.1124 7.3945 156.3874 6.832 L157.0749 6.832 L157.0749 15.457 ZM163.4749 15.457 L162.4124 15.457 L162.4124 8.732 Q162.0374 9.0945 161.4124 9.4695 Q160.7999 9.832 160.3124 10.007 L160.3124 8.982 Q161.1874 8.5695 161.8499 7.982 Q162.5124 7.3945 162.7874 6.832 L163.4749 6.832 L163.4749 15.457 ZM166.8874 17.982 L166.1249 17.982 Q167.8749 15.1695 167.8749 12.357 Q167.8749 11.2445 167.6249 10.1695 Q167.4249 9.282 167.0749 8.482 Q166.8374 7.957 166.1249 6.7195 L166.8874 6.7195 Q167.9874 8.1945 168.5124 9.6695 Q168.9624 10.957 168.9624 12.3445 Q168.9624 13.932 168.3499 15.407 Q167.7499 16.882 166.8874 17.982 Z" stroke="none" clip-path="url(#clipPath5)"
    /></g
    ><g font-size="11px" transform="translate(470,2)" fill-opacity="1" fill="black" text-rendering="geometricPrecision" image-rendering="optimizeQuality" font-family="sans-serif" stroke="black" stroke-opacity="1"
    ><text x="5" xml:space="preserve" y="12" clip-path="url(#clipPath6)" stroke="none"
      >MessagesTcpSCMThread</text
      ><text x="49" xml:space="preserve" y="27" clip-path="url(#clipPath6)" stroke="none"
      >(Server)</text
    ></g
    ><g font-size="11px" transform="translate(2,2)" fill-opacity="1" fill="black" text-rendering="geometricPrecision" image-rendering="optimizeQuality" font-family="sans-serif" stroke="black" stroke-opacity="1"
    ><text x="10" xml:space="preserve" y="12" clip-path="url(#clipPath7)" stroke="none"
      >machine.c</text
      ><text x="17" xml:space="preserve" y="27" clip-path="url(#clipPath7)" stroke="none"
      >(Client)</text
    ></g
    ><g stroke-linecap="butt" font-size="11px" transform="translate(-9,51)" fill-opacity="1" fill="black" text-rendering="geometricPrecision" image-rendering="optimizeQuality" font-family="sans-serif" stroke-linejoin="round" stroke="black" stroke-opacity="1"
    ><line y2="50" fill="none" x1="50" clip-path="url(#clipPath9)" x2="544" y1="50"
      /><polygon points=" 544 50 532 44 532 56" clip-path="url(#clipPath9)" stroke="none"
      /><polygon fill="none" points=" 544 50 532 44 532 56" clip-path="url(#clipPath9)"
    /></g
    ><g stroke-linecap="butt" font-size="11px" transform="translate(-9,146)" fill-opacity="1" fill="black" text-rendering="geometricPrecision" image-rendering="optimizeQuality" font-family="sans-serif" stroke-linejoin="round" stroke="black" stroke-opacity="1"
    ><line y2="50" fill="none" x1="544" clip-path="url(#clipPath10)" x2="50" y1="50"
      /><polygon points=" 50 50 62 56 62 44" clip-path="url(#clipPath10)" stroke="none"
      /><polygon fill="none" points=" 50 50 62 56 62 44" clip-path="url(#clipPath10)"
    /></g
    ><g stroke-linecap="butt" font-size="11px" transform="translate(-9,267)" fill-opacity="1" fill="black" text-rendering="geometricPrecision" image-rendering="optimizeQuality" font-family="sans-serif" stroke-linejoin="round" stroke="black" stroke-opacity="1"
    ><line y2="50" fill="none" x1="50" clip-path="url(#clipPath11)" x2="544" y1="50"
      /><polygon points=" 544 50 532 44 532 56" clip-path="url(#clipPath11)" stroke="none"
      /><polygon fill="none" points=" 544 50 532 44 532 56" clip-path="url(#clipPath11)"
    /></g
    ><g stroke-linecap="butt" font-size="11px" transform="translate(-9,75)" fill-opacity="1" fill="black" text-rendering="geometricPrecision" image-rendering="optimizeQuality" font-family="sans-serif" stroke-linejoin="round" stroke="black" stroke-opacity="1"
    ><line y2="50" fill="none" x1="544" clip-path="url(#clipPath12)" x2="50" y1="50"
      /><polygon points=" 50 50 62 56 62 44" clip-path="url(#clipPath12)" stroke="none"
      /><polygon fill="none" points=" 50 50 62 56 62 44" clip-path="url(#clipPath12)"
    /></g
    ><g stroke-linecap="butt" font-size="11px" transform="translate(-9,223)" fill-opacity="1" fill="black" text-rendering="geometricPrecision" image-rendering="optimizeQuality" font-family="sans-serif" stroke-linejoin="round" stroke="black" stroke-opacity="1"
    ><line y2="50" fill="none" x1="50" clip-path="url(#clipPath13)" x2="544" y1="50"
      /><polygon points=" 544 50 532 44 532 56" clip-path="url(#clipPath13)" stroke="none"
      /><polygon fill="none" points=" 544 50 532 44 532 56" clip-path="url(#clipPath13)"
    /></g
    ><g stroke-linecap="butt" font-size="11px" transform="translate(-9,181)" fill-opacity="1" fill="black" text-rendering="geometricPrecision" image-rendering="optimizeQuality" font-family="sans-serif" stroke-linejoin="round" stroke="black" stroke-opacity="1"
    ><line y2="50" fill="none" x1="544" clip-path="url(#clipPath14)" x2="50" y1="50"
      /><polygon points=" 50 50 62 56 62 44" clip-path="url(#clipPath14)" stroke="none"
      /><polygon fill="none" points=" 50 50 62 56 62 44" clip-path="url(#clipPath14)"
    /></g
    ><g stroke-linecap="butt" font-size="11px" transform="translate(-9,312)" fill-opacity="1" fill="black" text-rendering="geometricPrecision" image-rendering="optimizeQuality" font-family="sans-serif" stroke-linejoin="round" stroke="black" stroke-opacity="1"
    ><line y2="50" fill="none" x1="50" clip-path="url(#clipPath15)" x2="544" y1="50"
      /><polygon points=" 544 50 532 44 532 56" clip-path="url(#clipPath15)" stroke="none"
      /><polygon fill="none" points=" 544 50 532 44 532 56" clip-path="url(#clipPath15)"
    /></g
    ><g font-size="11px" transform="translate(135,342)" fill-opacity="1" fill="white" text-rendering="geometricPrecision" image-rendering="optimizeQuality" font-family="sans-serif" stroke="white" stroke-opacity="1"
    ><rect x="0" width="306" height="15" y="0" clip-path="url(#clipPath16)" stroke="none"
      /><text fill="black" x="10" xml:space="preserve" y="12" clip-path="url(#clipPath16)" stroke="none"
      >1.3.3: handshake message(encrypted with the shared key)</text
    ></g
    ><g font-size="11px" transform="translate(193,211)" fill-opacity="1" fill="white" text-rendering="geometricPrecision" image-rendering="optimizeQuality" font-family="sans-serif" stroke="white" stroke-opacity="1"
    ><rect x="0" width="189" height="15" y="0" clip-path="url(#clipPath17)" stroke="none"
      /><text fill="black" x="10" xml:space="preserve" y="12" clip-path="url(#clipPath17)" stroke="none"
      >1.3: certificate (server's public key)</text
    ></g
    ><g font-size="11px" transform="translate(251,252)" fill-opacity="1" fill="white" text-rendering="geometricPrecision" image-rendering="optimizeQuality" font-family="sans-serif" stroke="white" stroke-opacity="1"
    ><rect x="0" width="74" height="15" y="0" clip-path="url(#clipPath18)" stroke="none"
      /><text fill="black" x="9" xml:space="preserve" y="12" clip-path="url(#clipPath18)" stroke="none"
      >1.3.1: ACK</text
    ></g
    ><g font-size="11px" transform="translate(255,105)" fill-opacity="1" fill="white" text-rendering="geometricPrecision" image-rendering="optimizeQuality" font-family="sans-serif" stroke="white" stroke-opacity="1"
    ><rect x="0" width="65" height="15" y="0" clip-path="url(#clipPath19)" stroke="none"
      /><text fill="black" x="9" xml:space="preserve" y="12" clip-path="url(#clipPath19)" stroke="none"
      >1.1: ACK</text
    ></g
    ><g font-size="11px" transform="translate(88,297)" fill-opacity="1" fill="white" text-rendering="geometricPrecision" image-rendering="optimizeQuality" font-family="sans-serif" stroke="white" stroke-opacity="1"
    ><rect x="0" width="394" height="15" y="0" clip-path="url(#clipPath20)" stroke="none"
      /><text fill="black" x="9" xml:space="preserve" y="12" clip-path="url(#clipPath20)" stroke="none"
      >1.3.2: client key exchange (secret key encrypted with the server's public key)</text
    ></g
    ><g font-size="11px" transform="translate(121,145)" fill-opacity="1" fill="white" text-rendering="geometricPrecision" image-rendering="optimizeQuality" font-family="sans-serif" stroke="white" stroke-opacity="1"
    ><rect x="0" width="313" height="46" y="0" clip-path="url(#clipPath21)" stroke="none"
      /><text fill="black" x="29" xml:space="preserve" y="20" clip-path="url(#clipPath21)" stroke="none"
      >1.2: server HELLO (SSL/TLS version, cryptographic</text
      ><text fill="black" x="31" xml:space="preserve" y="35" clip-path="url(#clipPath21)" stroke="none"
      >algorithms, data compression methods agreement)</text
    ></g
    ><g font-size="11px" transform="translate(148,53)" fill-opacity="1" fill="white" text-rendering="geometricPrecision" image-rendering="optimizeQuality" font-family="sans-serif" stroke="white" stroke-opacity="1"
    ><rect x="0" width="270" height="40" y="0" clip-path="url(#clipPath22)" stroke="none"
      /><text fill="black" x="15" xml:space="preserve" y="17" clip-path="url(#clipPath22)" stroke="none"
      >1: client HELLO (SSL/TLS version, cryptographic</text
      ><text fill="black" x="38" xml:space="preserve" y="32" clip-path="url(#clipPath22)" stroke="none"
      >algorithms, data compression methods)</text
    ></g
    ><g font-size="8px" fill-opacity="1" fill="rgb(120,120,120)" text-rendering="geometricPrecision" image-rendering="optimizeQuality" stroke="rgb(120,120,120)" stroke-opacity="1"
    ><text x="0" xml:space="preserve" y="10" stroke="none"
      >Visual Paradigm Standard(Alexandre Lourenço(Instituto Superior de Engenharia do Porto))</text
    ></g
  ></g
></svg
>
