<?xml version="1.0" encoding="UTF-8"?>
<!DOCTYPE svg PUBLIC '-//W3C//DTD SVG 1.0//EN'
          'http://www.w3.org/TR/2001/REC-SVG-20010904/DTD/svg10.dtd'>
<svg fill-opacity="0" xmlns:xlink="http://www.w3.org/1999/xlink" color-rendering="auto" color-interpolation="auto" text-rendering="auto" stroke="rgb(0,0,0)" stroke-linecap="square" width="864" stroke-miterlimit="10" shape-rendering="auto" stroke-opacity="0" fill="rgb(0,0,0)" stroke-dasharray="none" font-weight="normal" stroke-width="1" height="670" xmlns="http://www.w3.org/2000/svg" font-family="'Dialog'" font-style="normal" stroke-linejoin="miter" font-size="12px" stroke-dashoffset="0" image-rendering="auto"
><!--Generated by the Batik Graphics2D SVG Generator--><defs id="genericDefs"
  /><g
  ><defs id="defs1"
    ><clipPath clipPathUnits="userSpaceOnUse" id="clipPath1"
      ><path d="M-7 -7 L183 -7 L183 51 L-7 51 L-7 -7 Z"
      /></clipPath
      ><clipPath clipPathUnits="userSpaceOnUse" id="clipPath2"
      ><path d="M0 0 L0 25 L172 25 L172 0 Z"
      /></clipPath
      ><clipPath clipPathUnits="userSpaceOnUse" id="clipPath3"
      ><path d="M0 0 L0 15 L173 15 L173 0 Z"
      /></clipPath
      ><clipPath clipPathUnits="userSpaceOnUse" id="clipPath4"
      ><path d="M-7 -7 L452 -7 L452 65 L-7 65 L-7 -7 Z"
      /></clipPath
      ><clipPath clipPathUnits="userSpaceOnUse" id="clipPath5"
      ><path d="M0 0 L0 39 L441 39 L441 0 Z"
      /></clipPath
      ><clipPath clipPathUnits="userSpaceOnUse" id="clipPath6"
      ><path d="M0 0 L0 15 L440 15 L440 0 Z"
      /></clipPath
      ><clipPath clipPathUnits="userSpaceOnUse" id="clipPath7"
      ><path d="M-7 -7 L122 -7 L122 81 L-7 81 L-7 -7 Z"
      /></clipPath
      ><clipPath clipPathUnits="userSpaceOnUse" id="clipPath8"
      ><path d="M0 0 L0 40 L111 40 L111 0 Z"
      /></clipPath
      ><clipPath clipPathUnits="userSpaceOnUse" id="clipPath9"
      ><path d="M0 0 L0 30 L112 30 L112 0 Z"
      /></clipPath
      ><clipPath clipPathUnits="userSpaceOnUse" id="clipPath10"
      ><path d="M-7 -7 L447 -7 L447 51 L-7 51 L-7 -7 Z"
      /></clipPath
      ><clipPath clipPathUnits="userSpaceOnUse" id="clipPath11"
      ><path d="M0 0 L0 25 L436 25 L436 0 Z"
      /></clipPath
      ><clipPath clipPathUnits="userSpaceOnUse" id="clipPath12"
      ><path d="M0 0 L0 15 L438 15 L438 0 Z"
      /></clipPath
      ><clipPath clipPathUnits="userSpaceOnUse" id="clipPath13"
      ><path d="M-7 -7 L121 -7 L121 64 L-7 64 L-7 -7 Z"
      /></clipPath
      ><clipPath clipPathUnits="userSpaceOnUse" id="clipPath14"
      ><path d="M0 0 L0 23 L110 23 L110 0 Z"
      /></clipPath
      ><clipPath clipPathUnits="userSpaceOnUse" id="clipPath15"
      ><path d="M0 0 L0 30 L110 30 L110 0 Z"
      /></clipPath
      ><clipPath clipPathUnits="userSpaceOnUse" id="clipPath16"
      ><path d="M-7 -7 L92 -7 L92 52 L-7 52 L-7 -7 Z"
      /></clipPath
      ><clipPath clipPathUnits="userSpaceOnUse" id="clipPath17"
      ><path d="M0 0 L0 26 L81 26 L81 0 Z"
      /></clipPath
      ><clipPath clipPathUnits="userSpaceOnUse" id="clipPath18"
      ><path d="M0 0 L0 15 L82 15 L82 0 Z"
      /></clipPath
      ><clipPath clipPathUnits="userSpaceOnUse" id="clipPath19"
      ><path d="M-7 -7 L91 -7 L91 64 L-7 64 L-7 -7 Z"
      /></clipPath
      ><clipPath clipPathUnits="userSpaceOnUse" id="clipPath20"
      ><path d="M0 0 L0 23 L80 23 L80 0 Z"
      /></clipPath
      ><clipPath clipPathUnits="userSpaceOnUse" id="clipPath21"
      ><path d="M0 0 L0 30 L80 30 L80 0 Z"
      /></clipPath
      ><clipPath clipPathUnits="userSpaceOnUse" id="clipPath22"
      ><path d="M-7 -7 L165 -7 L165 66 L-7 66 L-7 -7 Z"
      /></clipPath
      ><clipPath clipPathUnits="userSpaceOnUse" id="clipPath23"
      ><path d="M0 0 L0 25 L154 25 L154 0 Z"
      /></clipPath
      ><clipPath clipPathUnits="userSpaceOnUse" id="clipPath24"
      ><path d="M0 0 L0 30 L155 30 L155 0 Z"
      /></clipPath
      ><clipPath clipPathUnits="userSpaceOnUse" id="clipPath25"
      ><path d="M0 0 L146 0 L146 225 L0 225 L0 0 Z"
      /></clipPath
      ><clipPath clipPathUnits="userSpaceOnUse" id="clipPath26"
      ><path d="M0 0 L0 225 L146 225 L146 0 Z"
      /></clipPath
      ><clipPath clipPathUnits="userSpaceOnUse" id="clipPath27"
      ><path d="M0 0 L146 0 L146 268 L0 268 L0 0 Z"
      /></clipPath
      ><clipPath clipPathUnits="userSpaceOnUse" id="clipPath28"
      ><path d="M0 0 L0 268 L146 268 L146 0 Z"
      /></clipPath
      ><clipPath clipPathUnits="userSpaceOnUse" id="clipPath29"
      ><path d="M0 0 L218 0 L218 279 L0 279 L0 0 Z"
      /></clipPath
      ><clipPath clipPathUnits="userSpaceOnUse" id="clipPath30"
      ><path d="M0 0 L0 279 L218 279 L218 0 Z"
      /></clipPath
      ><clipPath clipPathUnits="userSpaceOnUse" id="clipPath31"
      ><path d="M0 0 L204 0 L204 279 L0 279 L0 0 Z"
      /></clipPath
      ><clipPath clipPathUnits="userSpaceOnUse" id="clipPath32"
      ><path d="M0 0 L0 279 L204 279 L204 0 Z"
      /></clipPath
      ><clipPath clipPathUnits="userSpaceOnUse" id="clipPath33"
      ><path d="M0 0 L146 0 L146 265 L0 265 L0 0 Z"
      /></clipPath
      ><clipPath clipPathUnits="userSpaceOnUse" id="clipPath34"
      ><path d="M0 0 L0 265 L146 265 L146 0 Z"
      /></clipPath
      ><clipPath clipPathUnits="userSpaceOnUse" id="clipPath35"
      ><path d="M0 0 L146 0 L146 279 L0 279 L0 0 Z"
      /></clipPath
      ><clipPath clipPathUnits="userSpaceOnUse" id="clipPath36"
      ><path d="M0 0 L0 279 L146 279 L146 0 Z"
      /></clipPath
      ><clipPath clipPathUnits="userSpaceOnUse" id="clipPath37"
      ><path d="M0 0 L202 0 L202 146 L0 146 L0 0 Z"
      /></clipPath
      ><clipPath clipPathUnits="userSpaceOnUse" id="clipPath38"
      ><path d="M0 0 L0 146 L202 146 L202 0 Z"
      /></clipPath
      ><clipPath clipPathUnits="userSpaceOnUse" id="clipPath39"
      ><path d="M0 0 L291 0 L291 146 L0 146 L0 0 Z"
      /></clipPath
      ><clipPath clipPathUnits="userSpaceOnUse" id="clipPath40"
      ><path d="M0 0 L0 146 L291 146 L291 0 Z"
      /></clipPath
      ><clipPath clipPathUnits="userSpaceOnUse" id="clipPath41"
      ><path d="M0 0 L146 0 L146 278 L0 278 L0 0 Z"
      /></clipPath
      ><clipPath clipPathUnits="userSpaceOnUse" id="clipPath42"
      ><path d="M0 0 L0 278 L146 278 L146 0 Z"
      /></clipPath
    ></defs
    ><g fill="white" text-rendering="geometricPrecision" fill-opacity="1" stroke-opacity="1" stroke="white"
    ><rect x="0" width="864" height="670" y="0" stroke="none"
    /></g
    ><g fill-opacity="1" text-rendering="geometricPrecision" stroke="black" stroke-linecap="butt" transform="translate(466,2)" stroke-miterlimit="0" stroke-opacity="1" fill="black" font-weight="bold" font-family="sans-serif" stroke-linejoin="round" font-size="11px" image-rendering="optimizeQuality"
    ><rect fill="none" x="0" width="172" height="40" y="0" clip-path="url(#clipPath1)"
      /><line y2="15" fill="none" x1="0" clip-path="url(#clipPath1)" x2="172" y1="15"
    /></g
    ><g font-size="11px" transform="translate(466,2)" fill-opacity="1" fill="black" text-rendering="geometricPrecision" image-rendering="optimizeQuality" font-family="sans-serif" stroke="black" font-weight="bold" stroke-opacity="1"
    ><text x="5" xml:space="preserve" y="12" clip-path="url(#clipPath3)" stroke="none"
      >AddConfigurationToMachineUI</text
    ></g
    ><g fill-opacity="1" text-rendering="geometricPrecision" stroke="black" stroke-linecap="butt" transform="translate(315,121)" stroke-miterlimit="0" stroke-opacity="1" fill="black" font-weight="bold" font-family="sans-serif" stroke-linejoin="round" font-size="11px" image-rendering="optimizeQuality"
    ><rect fill="none" x="0" width="441" height="54" y="0" clip-path="url(#clipPath4)"
      /><line y2="15" fill="none" x1="0" clip-path="url(#clipPath4)" x2="441" y1="15"
    /></g
    ><g font-size="11px" transform="matrix(1,0,0,1,315,136)" fill-opacity="1" fill="black" text-rendering="geometricPrecision" image-rendering="optimizeQuality" font-family="sans-serif" stroke="black" stroke-opacity="1"
    ><text x="2" xml:space="preserve" y="14" clip-path="url(#clipPath5)" stroke="none"
      >+create()</text
    ></g
    ><g font-size="11px" transform="matrix(1,0,0,1,315,136)" fill-opacity="1" fill="black" text-rendering="geometricPrecision" image-rendering="optimizeQuality" font-family="sans-serif" stroke="black" stroke-opacity="1"
    ><text x="2" xml:space="preserve" y="29" clip-path="url(#clipPath5)" stroke="none"
      >+addConfigurationToMachine(description, fileName)</text
    ></g
    ><g font-size="11px" transform="translate(315,121)" fill-opacity="1" fill="black" text-rendering="geometricPrecision" image-rendering="optimizeQuality" font-family="sans-serif" stroke="black" font-weight="bold" stroke-opacity="1"
    ><text x="117" xml:space="preserve" y="12" clip-path="url(#clipPath6)" stroke="none"
      >AddConfigurationToMachineController</text
    ></g
    ><g fill-opacity="1" text-rendering="geometricPrecision" stroke="black" stroke-linecap="butt" transform="translate(495,296)" stroke-miterlimit="0" stroke-opacity="1" fill="black" font-weight="bold" font-family="sans-serif" stroke-linejoin="round" font-size="11px" image-rendering="optimizeQuality"
    ><rect fill="none" x="0" width="111" height="70" y="0" clip-path="url(#clipPath7)"
      /><line y2="30" fill="none" x1="0" clip-path="url(#clipPath7)" x2="111" y1="30"
    /></g
    ><g font-size="11px" transform="matrix(1,0,0,1,495,326)" fill-opacity="1" fill="black" text-rendering="geometricPrecision" image-rendering="optimizeQuality" font-family="sans-serif" stroke="black" stroke-opacity="1"
    ><text x="2" xml:space="preserve" y="14" clip-path="url(#clipPath8)" stroke="none"
      >+create()</text
    ></g
    ><g font-size="11px" transform="matrix(1,0,0,1,495,326)" fill-opacity="1" fill="black" text-rendering="geometricPrecision" image-rendering="optimizeQuality" font-family="sans-serif" stroke="black" stroke-opacity="1"
    ><text x="2" xml:space="preserve" y="29" clip-path="url(#clipPath8)" stroke="none"
      >+getAllMachines()</text
    ></g
    ><g font-size="11px" transform="translate(495,296)" fill-opacity="1" fill="black" text-rendering="geometricPrecision" image-rendering="optimizeQuality" font-family="sans-serif" stroke="black" font-weight="bold" stroke-opacity="1"
    ><text x="7" xml:space="preserve" y="12" clip-path="url(#clipPath9)" stroke="none"
      >ListMachineServic</text
      ><text x="52" xml:space="preserve" y="27" clip-path="url(#clipPath9)" stroke="none"
      >e</text
    ></g
    ><g fill-opacity="1" text-rendering="geometricPrecision" stroke="black" stroke-linecap="butt" transform="translate(2,280)" stroke-miterlimit="0" stroke-opacity="1" fill="black" font-weight="bold" font-family="sans-serif" stroke-linejoin="round" font-size="11px" image-rendering="optimizeQuality"
    ><rect fill="none" x="0" width="436" height="40" y="0" clip-path="url(#clipPath10)"
      /><line y2="15" fill="none" x1="0" clip-path="url(#clipPath10)" x2="436" y1="15"
    /></g
    ><g font-size="11px" transform="translate(2,280)" fill-opacity="1" fill="black" text-rendering="geometricPrecision" image-rendering="optimizeQuality" font-family="sans-serif" stroke="black" font-weight="bold" stroke-opacity="1"
    ><text x="196" xml:space="preserve" y="12" clip-path="url(#clipPath12)" stroke="none"
      >Machine</text
    ></g
    ><g fill-opacity="1" text-rendering="geometricPrecision" stroke="black" stroke-linecap="butt" transform="translate(750,280)" stroke-miterlimit="0" stroke-opacity="1" fill="black" font-weight="bold" font-family="sans-serif" stroke-linejoin="round" font-size="11px" image-rendering="optimizeQuality"
    ><rect fill="none" x="0" width="110" height="53" y="0" clip-path="url(#clipPath13)"
      /><line y2="30" fill="none" x1="0" clip-path="url(#clipPath13)" x2="110" y1="30"
    /></g
    ><g font-size="11px" transform="matrix(1,0,0,1,750,310)" fill-opacity="1" fill="black" text-rendering="geometricPrecision" image-rendering="optimizeQuality" font-family="sans-serif" stroke="black" stroke-opacity="1"
    ><text x="2" xml:space="preserve" y="14" clip-path="url(#clipPath14)" stroke="none"
      >+getAllProducts()</text
    ></g
    ><g font-size="11px" transform="matrix(1,0,0,1,750,310)" fill-opacity="1" fill="black" text-rendering="geometricPrecision" image-rendering="optimizeQuality" font-family="sans-serif" stroke="black" stroke-opacity="1"
    ><text x="2" xml:space="preserve" y="29" clip-path="url(#clipPath14)" stroke="none"
      >+save(newProduct)</text
    ></g
    ><g font-size="11px" transform="translate(750,280)" fill-opacity="1" fill="black" text-rendering="geometricPrecision" image-rendering="optimizeQuality" font-family="sans-serif" stroke="black" font-weight="bold" stroke-opacity="1"
    ><text x="6" xml:space="preserve" y="12" clip-path="url(#clipPath15)" stroke="none"
      >MachineRepositor</text
      ><text x="51" xml:space="preserve" y="27" clip-path="url(#clipPath15)" stroke="none"
      >y</text
    ></g
    ><g fill-opacity="1" text-rendering="geometricPrecision" stroke="black" stroke-linecap="butt" transform="translate(207,454)" stroke-miterlimit="0" stroke-opacity="1" fill="black" font-weight="bold" font-family="sans-serif" stroke-linejoin="round" font-size="11px" image-rendering="optimizeQuality"
    ><rect fill="none" x="0" width="81" height="41" y="0" clip-path="url(#clipPath16)"
      /><line y2="15" fill="none" x1="0" clip-path="url(#clipPath16)" x2="81" y1="15"
    /></g
    ><g font-size="11px" transform="matrix(1,0,0,1,207,469)" fill-opacity="1" fill="black" text-rendering="geometricPrecision" image-rendering="optimizeQuality" font-family="sans-serif" stroke="black" stroke-opacity="1"
    ><text x="2" xml:space="preserve" y="14" clip-path="url(#clipPath17)" stroke="none"
      >+create()</text
    ></g
    ><g font-size="11px" transform="translate(207,454)" fill-opacity="1" fill="black" text-rendering="geometricPrecision" image-rendering="optimizeQuality" font-family="sans-serif" stroke="black" font-weight="bold" stroke-opacity="1"
    ><text x="6" xml:space="preserve" y="12" clip-path="url(#clipPath18)" stroke="none"
      >MachineDTO</text
    ></g
    ><g fill-opacity="1" text-rendering="geometricPrecision" stroke="black" stroke-linecap="butt" transform="translate(207,613)" stroke-miterlimit="0" stroke-opacity="1" fill="black" font-weight="bold" font-family="sans-serif" stroke-linejoin="round" font-size="11px" image-rendering="optimizeQuality"
    ><rect fill="none" x="0" width="80" height="53" y="0" clip-path="url(#clipPath19)"
      /><line y2="30" fill="none" x1="0" clip-path="url(#clipPath19)" x2="80" y1="30"
    /></g
    ><g font-size="11px" transform="matrix(1,0,0,1,207,643)" fill-opacity="1" fill="black" text-rendering="geometricPrecision" image-rendering="optimizeQuality" font-family="sans-serif" stroke="black" stroke-opacity="1"
    ><text x="2" xml:space="preserve" y="14" clip-path="url(#clipPath20)" stroke="none"
      >+toDTO()</text
    ></g
    ><g font-size="11px" transform="translate(207,613)" fill-opacity="1" fill="black" text-rendering="geometricPrecision" image-rendering="optimizeQuality" font-family="sans-serif" stroke="black" stroke-opacity="1"
    ><text x="5" xml:space="preserve" y="12" clip-path="url(#clipPath21)" stroke="none"
      >&lt;&lt;Interface&gt;&gt;</text
      ><text x="27" xml:space="preserve" y="27" clip-path="url(#clipPath21)" font-weight="bold" stroke="none"
      >DTO</text
    ></g
    ><g fill-opacity="1" text-rendering="geometricPrecision" stroke="black" stroke-linecap="butt" transform="translate(371,452)" stroke-miterlimit="0" stroke-opacity="1" fill="black" font-weight="bold" font-family="sans-serif" stroke-linejoin="round" font-size="11px" image-rendering="optimizeQuality"
    ><rect fill="none" x="0" width="154" height="55" y="0" clip-path="url(#clipPath22)"
      /><line y2="30" fill="none" x1="0" clip-path="url(#clipPath22)" x2="154" y1="30"
    /></g
    ><g font-size="11px" transform="matrix(1,0,0,1,371,482)" fill-opacity="1" fill="black" text-rendering="geometricPrecision" image-rendering="optimizeQuality" font-family="sans-serif" stroke="black" stroke-opacity="1"
    ><text x="2" xml:space="preserve" y="14" clip-path="url(#clipPath23)" stroke="none"
      >+create(description, fileName)</text
    ></g
    ><g font-size="11px" transform="translate(371,452)" fill-opacity="1" fill="black" text-rendering="geometricPrecision" image-rendering="optimizeQuality" font-family="sans-serif" stroke="black" font-weight="bold" stroke-opacity="1"
    ><text x="40" xml:space="preserve" y="19" clip-path="url(#clipPath24)" stroke="none"
      >Configuration</text
    ></g
    ><g fill-opacity="1" text-rendering="geometricPrecision" stroke="black" stroke-linecap="butt" transform="translate(437,-30)" stroke-opacity="1" fill="black" stroke-dasharray="5" font-family="sans-serif" stroke-linejoin="round" font-size="11px" stroke-dashoffset="1" image-rendering="optimizeQuality"
    ><line y2="150" fill="none" x1="71" clip-path="url(#clipPath26)" x2="71" y1="72"
      /><line clip-path="url(#clipPath26)" stroke-dashoffset="0" fill="none" x1="71" x2="77" y1="150" y2="138" stroke-dasharray="none"
      /><line clip-path="url(#clipPath26)" stroke-dashoffset="0" fill="none" x1="71" x2="65" y1="150" y2="138" stroke-dasharray="none"
    /></g
    ><g fill-opacity="1" text-rendering="geometricPrecision" stroke="black" stroke-linecap="butt" transform="translate(462,103)" stroke-opacity="1" fill="black" stroke-dasharray="5" font-family="sans-serif" stroke-linejoin="round" font-size="11px" stroke-dashoffset="1" image-rendering="optimizeQuality"
    ><line y2="193" fill="none" x1="72" clip-path="url(#clipPath28)" x2="72" y1="71"
      /><line clip-path="url(#clipPath28)" stroke-dashoffset="0" fill="none" x1="72" x2="78" y1="193" y2="181" stroke-dasharray="none"
      /><line clip-path="url(#clipPath28)" stroke-dashoffset="0" fill="none" x1="72" x2="66" y1="193" y2="181" stroke-dasharray="none"
    /></g
    ><g fill-opacity="1" text-rendering="geometricPrecision" stroke="black" stroke-linecap="butt" transform="translate(171,74)" stroke-opacity="1" fill="black" stroke-dasharray="5" font-family="sans-serif" stroke-linejoin="round" font-size="11px" stroke-dashoffset="1" image-rendering="optimizeQuality"
    ><line y2="72" fill="none" x1="143" clip-path="url(#clipPath30)" x2="71" y1="72"
      /><line y2="205" fill="none" x1="71" clip-path="url(#clipPath30)" x2="71" y1="72"
      /><line clip-path="url(#clipPath30)" stroke-dashoffset="0" fill="none" x1="71" x2="77" y1="205" y2="193" stroke-dasharray="none"
      /><line clip-path="url(#clipPath30)" stroke-dashoffset="0" fill="none" x1="71" x2="65" y1="205" y2="193" stroke-dasharray="none"
    /></g
    ><g fill-opacity="1" text-rendering="geometricPrecision" stroke="black" stroke-linecap="butt" transform="translate(684,74)" stroke-opacity="1" fill="black" stroke-dasharray="5" font-family="sans-serif" stroke-linejoin="round" font-size="11px" stroke-dashoffset="1" image-rendering="optimizeQuality"
    ><line y2="72" fill="none" x1="71" clip-path="url(#clipPath32)" x2="128" y1="72"
      /><line y2="205" fill="none" x1="128" clip-path="url(#clipPath32)" x2="128" y1="72"
      /><line clip-path="url(#clipPath32)" stroke-dashoffset="0" fill="none" x1="128" x2="134" y1="205" y2="193" stroke-dasharray="none"
      /><line clip-path="url(#clipPath32)" stroke-dashoffset="0" fill="none" x1="128" x2="122" y1="205" y2="193" stroke-dasharray="none"
    /></g
    ><g fill-opacity="1" text-rendering="geometricPrecision" stroke="black" stroke-linecap="butt" transform="translate(174,423)" stroke-opacity="1" fill="black" stroke-dasharray="5" font-family="sans-serif" stroke-linejoin="round" font-size="11px" stroke-dashoffset="1" image-rendering="optimizeQuality"
    ><line y2="190" fill="none" x1="71" clip-path="url(#clipPath34)" x2="71" y1="71"
      /><line clip-path="url(#clipPath34)" stroke-dashoffset="0" fill="none" x1="71" x2="77" y1="190" y2="178" stroke-dasharray="none"
      /><line clip-path="url(#clipPath34)" stroke-dashoffset="0" fill="none" x1="71" x2="65" y1="190" y2="178" stroke-dasharray="none"
    /></g
    ><g fill-opacity="1" text-rendering="geometricPrecision" stroke="black" stroke-linecap="butt" transform="translate(140,249)" stroke-opacity="1" fill="black" stroke-dasharray="5" font-family="sans-serif" stroke-linejoin="round" font-size="11px" stroke-dashoffset="1" image-rendering="optimizeQuality"
    ><line y2="204" fill="none" x1="71" clip-path="url(#clipPath36)" x2="71" y1="71"
      /><line clip-path="url(#clipPath36)" stroke-dashoffset="0" fill="none" x1="71" x2="77" y1="204" y2="192" stroke-dasharray="none"
      /><line clip-path="url(#clipPath36)" stroke-dashoffset="0" fill="none" x1="71" x2="65" y1="204" y2="192" stroke-dasharray="none"
    /></g
    ><g fill-opacity="1" text-rendering="geometricPrecision" stroke="black" stroke-linecap="butt" transform="translate(175,423)" stroke-opacity="1" fill="black" stroke-dasharray="5" font-family="sans-serif" stroke-linejoin="round" font-size="11px" stroke-dashoffset="1" image-rendering="optimizeQuality"
    ><line y2="190" fill="none" x1="72" clip-path="url(#clipPath34)" x2="72" y1="71"
      /><line clip-path="url(#clipPath34)" stroke-dashoffset="0" fill="none" x1="72" x2="78" y1="190" y2="178" stroke-dasharray="none"
      /><line clip-path="url(#clipPath34)" stroke-dashoffset="0" fill="none" x1="72" x2="66" y1="190" y2="178" stroke-dasharray="none"
    /></g
    ><g fill-opacity="1" text-rendering="geometricPrecision" stroke="black" stroke-linecap="butt" transform="translate(367,229)" stroke-opacity="1" fill="black" stroke-dasharray="5" font-family="sans-serif" stroke-linejoin="round" font-size="11px" stroke-dashoffset="1" image-rendering="optimizeQuality"
    ><line y2="71" fill="none" x1="71" clip-path="url(#clipPath38)" x2="127" y1="71"
      /><line clip-path="url(#clipPath38)" stroke-dashoffset="0" fill="none" x1="127" x2="115" y1="71" y2="65" stroke-dasharray="none"
      /><line clip-path="url(#clipPath38)" stroke-dashoffset="0" fill="none" x1="127" x2="115" y1="71" y2="77" stroke-dasharray="none"
    /></g
    ><g fill-opacity="1" text-rendering="geometricPrecision" stroke="black" stroke-linecap="butt" transform="translate(534,234)" stroke-opacity="1" fill="black" stroke-dasharray="5" font-family="sans-serif" stroke-linejoin="round" font-size="11px" stroke-dashoffset="1" image-rendering="optimizeQuality"
    ><line y2="72" fill="none" x1="215" clip-path="url(#clipPath40)" x2="71" y1="72"
      /><line clip-path="url(#clipPath40)" stroke-dashoffset="0" fill="none" x1="71" x2="83" y1="72" y2="78" stroke-dasharray="none"
      /><line clip-path="url(#clipPath40)" stroke-dashoffset="0" fill="none" x1="71" x2="83" y1="72" y2="66" stroke-dasharray="none"
    /></g
    ><g fill-opacity="1" text-rendering="geometricPrecision" stroke="black" stroke-linecap="butt" transform="translate(331,249)" stroke-opacity="1" fill="black" stroke-dasharray="5" font-family="sans-serif" stroke-linejoin="round" font-size="11px" stroke-dashoffset="1" image-rendering="optimizeQuality"
    ><line y2="203" fill="none" x1="71" clip-path="url(#clipPath42)" x2="71" y1="71"
      /><line clip-path="url(#clipPath42)" stroke-dashoffset="0" fill="none" x1="71" x2="77" y1="203" y2="191" stroke-dasharray="none"
      /><line clip-path="url(#clipPath42)" stroke-dashoffset="0" fill="none" x1="71" x2="65" y1="203" y2="191" stroke-dasharray="none"
    /></g
    ><g font-size="8px" fill-opacity="1" fill="rgb(120,120,120)" text-rendering="geometricPrecision" image-rendering="optimizeQuality" stroke="rgb(120,120,120)" stroke-opacity="1"
    ><text x="0" xml:space="preserve" y="10" stroke="none"
      >Visual Paradigm Standard(Alexandre Lourenço(Instituto Superior de Engenharia do Porto))</text
    ></g
  ></g
></svg
>
