//Chargeback
CBM;10052020;15;15;1;1
CBM;09052020;2;35;2;2
CBM;12052020;16;40;2;2
CBM;11052020;1;5;1;3
CBM;13052020;15;10;3;1
//Consume
CM;10052020;3;15;1;1
CM;09052020;2;35;2;2
CM;12052020;4;40;2;2
CM;11052020;1;5;1;3
CM;13052020;2;10;3;1
//EndActivity
EAM;10052020;3;context1
EAM;09052020;2;context2
EAM;12052020;4
EAM;11052020;1;context3
EAM;13052020;2
//Error
EM;10052020;15;MACHINE_NOT_VALID
EM;09052020;16;MACHINE_NOT_VALID
EM;12052020;18;PRODUCTION_LINE_NOT_VALID
EM;11052020;1;PRODUCTION_LINE_NOT_VALID
EM;13052020;2;MACHINE_NOT_VALID
//ProductionDelivery
PDM;10052020;3;1;15;1
PDM;09052020;2;2;35;2;batch1
PDM;12052020;4;2;20;2
PDM;11052020;1;1;17;3;batch2
PDM;13052020;2;3;34;1
//Production
PM;10052020;3;1;15
PM;09052020;2;2;35;batch1
PM;12052020;4;2;20
PM;11052020;1;1;17;batch2
PM;13052020;2;3;34
//RestartActivity
RAM;10052020;3
RAM;09052020;2
RAM;12052020;4
RAM;11052020;1
RAM;13052020;2
//StartActivity
SAM;10052020;3;1
SAM;09052020;2;2
SAM;12052020;4;1
SAM;11052020;1;1
SAM;13052020;2;2
